---- create a sample server -----


status code 

    100 : informational responses
    200 : success codes
    300 : codes for redirects
    400 : user or client error codes 
    500 : server error codes 

redirect